…
### Working example

Let's calculate the hotspots congruence using the data of amphibians of
Uruguay, for three different grid-cell sizes: 12.5x12.5km, 25x25km and
50x50km.

    Amphibia_125.GRIDs <- read_csv('Amphibia_UY125.csv')
    Amphibia_25.GRIDs <- read_csv('Amphibia_UY25.csv')
    Amphibia_50.GRIDs <- read_csv('Amphibia_UY50.csv')

Each table has a GridID and the values for the 4 variables NR, SR, TP
and ER for each grid. For instance, the table for Amphibia at 50x50km
scale looks like this:

    ## # A tibble: 93 x 5
    ##    GridID    NR    SR      TP    ER
    ##     <dbl> <dbl> <dbl>   <dbl> <dbl>
    ##  1      1     6     4 0       0.107
    ##  2      2   188    19 0.0372  7.24 
    ##  3      3    45    19 0.0222  1.46 
    ##  4      4    70    22 0.114   2.74 
    ##  5      5     9     8 0       0.241
    ##  6      6    12     8 0       0.250
    ##  7      7    20    14 0.05    0.944
    ##  8      8   105    24 0.00952 3.94 
    ##  9      9    75    20 0       2.21 
    ## 10     10   131    22 0.0305  5.27 
    ## # ... with 83 more rows
…
    Reptilia_25.SACs <- read_tsv('Reptilia_UY25_abundance.txt', col_names = FALSE) %>% 
      rename(cell_id=X1, sample=X2, species=X3)

The data looks like this:

    ## # A tibble: 2,381 x 3
    ##    cell_id sample species                
    ##      <dbl>  <dbl> <chr>                  
    ##  1       1      1 Hydromedusa tectifera  
    ##  2       1      2 Liolaemus wiegmannii   
    ##  3       1      3 Liolaemus wiegmannii   
    ##  4       1      4 Liolaemus wiegmannii   
    ##  5       1      5 Cercosaura schreibersii
    ##  6       1      6 Cercosaura schreibersii
    ##  7       1      7 Chelonia mydas         
    ##  8       1      8 Hydromedusa tectifera  
    ##  9       1      9 Liolaemus wiegmannii   
    ## 10       1     10 Lygophis anomalus      
    ## # ... with 2,371 more rows
…
