…
------------------------------------------------------------------------

First, let's explore the data!
------------------------------

Let's start by reading the data from the database. Once you have
downloaded the dataset, the data will look like this (a tibble with
**12,470** rows and **61** columns):

    Biodiversidata_Plants

    ## # A tibble: 12,470 x 61
    ##    license occurrenceID basisOfRecord recordedBy establishmentMe~
    ##    <chr>   <chr>        <chr>         <chr>      <chr>           
    ##  1 https:~ Biodiversid~ HumanObserva~ Andrés Go~ introducida     
    ##  2 https:~ Biodiversid~ HumanObserva~ Andrés Go~ nativa          
    ##  3 https:~ Biodiversid~ HumanObserva~ Andrés Go~ nativa          
    ##  4 https:~ Biodiversid~ HumanObserva~ Andrés Go~ nativa          
    ##  5 https:~ Biodiversid~ HumanObserva~ Andrés Go~ nativa          
    ##  6 https:~ Biodiversid~ HumanObserva~ Andrés Go~ nativa          
    ##  7 https:~ Biodiversid~ HumanObserva~ Andrés Go~ nativa          
    ##  8 https:~ Biodiversid~ HumanObserva~ Andrés Go~ nativa          
    ##  9 https:~ Biodiversid~ HumanObserva~ Andrés Go~ nativa          
    ## 10 https:~ Biodiversid~ HumanObserva~ Andrés Go~ nativa          
    ## # ... with 12,460 more rows, and 56 more variables:
    ## #   previousIdentifications <chr>, eventDate <chr>, year <dbl>, month <dbl>,
    ## #   day <dbl>, higherGeography <chr>, continent <chr>, country <chr>,
    ## #   countryCode <chr>, stateProvince <chr>, locality <chr>,
    ## #   decimalLatitude <dbl>, decimalLongitude <dbl>, geodeticDatum <chr>,
    ## #   coordinateUncertaintyInMeters <dbl>, coordinatePrecision <dbl>,
    ## #   georeferencedBy <chr>, identifiedBy <chr>, taxonID <chr>,
    ## #   scientificName <chr>, nameAccordingTo <chr>, higherClassification <chr>,
    ## #   kingdom <chr>, phylum <chr>, class <chr>, order <chr>, family <chr>,
…
